module gitlab.com/place-me/assetsvc-client-go

go 1.17

require (
	github.com/envoyproxy/protoc-gen-validate v0.6.3
	github.com/golang/protobuf v1.5.2
	google.golang.org/grpc v1.44.0
	google.golang.org/protobuf v1.27.1
)

require (
	golang.org/x/net v0.0.0-20210813160813-60bc85c4be6d // indirect
	golang.org/x/sys v0.0.0-20210816183151-1e6c022a8912 // indirect
	golang.org/x/text v0.3.7 // indirect
	google.golang.org/genproto v0.0.0-20200526211855-cb27e3aa2013 // indirect
)
